CPU.vcd
$date
	Sun Jun 09 23:18:10 2019
$end
$version
	Icarus Verilog
$end
$timescale
	1s
$end
$scope module CPU_tb $end
$var wire 16 ! out [15:0] $end
$var reg 1 " CLK $end
$var reg 1 # reset $end
$scope module xy $end
$var wire 12 $ ARout [11:0] $end
$var wire 1 % CLK $end
$var wire 16 & DRout [15:0] $end
$var wire 1 ' F $end
$var wire 16 ( IRout [15:0] $end
$var wire 12 ) PCout [11:0] $end
$var wire 16 * Result [15:0] $end
$var wire 5 + countertodecoder [4:0] $end
$var wire 8 , decoder8out [7:0] $end
$var wire 16 - memout [15:0] $end
$var wire 16 . out [15:0] $end
$var wire 1 / reset $end
$var wire 32 0 seq [31:0] $end
$var reg 16 1 A [15:0] $end
$var reg 1 2 ACclr $end
$var reg 16 3 ACin [15:0] $end
$var reg 1 4 ACinc $end
$var reg 1 5 ACld $end
$var reg 12 6 ARin [11:0] $end
$var reg 1 7 ARinc $end
$var reg 1 8 ARld $end
$var reg 16 9 B [15:0] $end
$var reg 16 : DRin [15:0] $end
$var reg 1 ; DRinc $end
$var reg 1 < DRld $end
$var reg 1 = E $end
$var reg 1 > I $end
$var reg 16 ? IRin [15:0] $end
$var reg 1 @ IRld $end
$var reg 12 A PCin [11:0] $end
$var reg 1 B PCinc $end
$var reg 1 C PCld $end
$var reg 1 D S $end
$var reg 1 E SCclr $end
$var reg 3 F decoder8in [2:0] $end
$var reg 12 G memadd [11:0] $end
$var reg 16 H memin [15:0] $end
$var reg 1 I read $end
$var reg 1 J select $end
$var reg 1 K write $end
$scope module AC $end
$var wire 1 % CLK $end
$var wire 1 L CLR $end
$var wire 16 M Datain [15:0] $end
$var wire 1 N INR $end
$var wire 1 O LD $end
$var reg 16 P Dataout [15:0] $end
$upscope $end
$scope module IR $end
$var wire 1 % CLK $end
$var wire 1 / CLR $end
$var wire 16 Q Datain [15:0] $end
$var wire 1 R INR $end
$var wire 1 S LD $end
$var reg 16 T Dataout [15:0] $end
$upscope $end
$scope module DR $end
$var wire 1 % CLK $end
$var wire 1 / CLR $end
$var wire 16 U Datain [15:0] $end
$var wire 1 V INR $end
$var wire 1 W LD $end
$var reg 16 X Dataout [15:0] $end
$upscope $end
$scope module PC $end
$var wire 1 % CLK $end
$var wire 1 / CLR $end
$var wire 12 Y Datain [11:0] $end
$var wire 1 Z INR $end
$var wire 1 [ LD $end
$var reg 12 \ Dataout [11:0] $end
$upscope $end
$scope module AR $end
$var wire 1 % CLK $end
$var wire 1 / CLR $end
$var wire 12 ] Datain [11:0] $end
$var wire 1 ^ INR $end
$var wire 1 _ LD $end
$var reg 12 ` Dataout [11:0] $end
$upscope $end
$scope module C $end
$var wire 1 % CLK $end
$var wire 1 a CLR $end
$var reg 5 b counter [4:0] $end
$upscope $end
$scope module d1 $end
$var wire 5 c datain [4:0] $end
$var reg 32 d T [31:0] $end
$upscope $end
$scope module d0 $end
$var wire 3 e datain [2:0] $end
$var reg 8 f T [7:0] $end
$upscope $end
$scope module mymemory $end
$var wire 1 % CLK $end
$var wire 1 g R $end
$var wire 1 h W $end
$var wire 12 i address [11:0] $end
$var wire 16 j datain [15:0] $end
$var reg 16 k dataout [15:0] $end
$upscope $end
$scope module A0 $end
$var wire 16 l A [15:0] $end
$var wire 16 m B [15:0] $end
$var wire 1 n select $end
$var reg 1 o E $end
$var reg 16 p Result [15:0] $end
$upscope $end
$upscope $end
$upscope $end
$enddefinitions $end
#0
$dumpvars
bx p
xo
xn
bx m
bx l
bx k
bx j
bx i
xh
xg
bx f
bx e
bx d
bx c
bx b
1a
bx `
x_
x^
bx ]
bx \
1[
xZ
b0 Y
bx X
xW
xV
bx U
bx T
xS
zR
bx Q
bx P
xO
xN
bx M
xL
xK
xJ
xI
bx H
bx G
bx F
1E
1D
1C
xB
b0 A
x@
bx ?
x>
x=
x<
x;
bx :
bx 9
x8
x7
bx 6
x5
x4
bx 3
x2
bx 1
bx 0
0/
bx .
bx -
bx ,
bx +
bx *
bx )
bx (
x'
bx &
0%
bx $
0#
0"
bx !
$end
#2
b1 d
b1 0
b0 \
b0 )
b0 b
b0 +
b0 c
02
0L
0@
0S
0K
0h
0I
0g
0;
0V
07
0^
0B
0Z
0C
0[
08
0_
0<
0W
05
0O
0E
0a
1"
1%
#4
0"
0%
#6
b10 d
b10 0
18
1_
b0 6
b0 ]
b1 b
b1 +
b1 c
1"
1%
#8
0"
0%
#10
b100 d
b100 0
b0 `
b0 $
b10 b
b10 +
b10 c
1B
1Z
08
0_
1"
1%
#12
0"
0%
#14
b1000 d
b1000 0
b0 G
b0 i
1I
1g
0B
0Z
b11 b
b11 +
b11 c
b1 \
b1 )
1"
1%
#16
0"
0%
#18
b10000 d
b10000 0
b100 b
b100 +
b100 c
0I
0g
b111100000000000 k
b111100000000000 -
1"
1%
#20
0"
0%
#22
b100000 d
b100000 0
1@
1S
b111100000000000 ?
b111100000000000 Q
b101 b
b101 +
b101 c
1"
1%
#24
0"
0%
#26
b1000000 d
b1000000 0
b111100000000000 T
b111100000000000 (
b110 b
b110 +
b110 c
0@
0S
1"
1%
#28
0"
0%
#30
b10000000 f
b10000000 ,
b10000000 d
b10000000 0
18
1_
b100000000000 6
b100000000000 ]
0>
b111 F
b111 e
b111 b
b111 +
b111 c
1"
1%
#32
0"
0%
#34
b100000000 d
b100000000 0
b100000000000 `
b100000000000 $
b1000 b
b1000 +
b1000 c
08
0_
1"
1%
#36
0"
0%
#38
b1000000000 d
b1000000000 0
b100000000000 G
b100000000000 i
1I
1g
b1001 b
b1001 +
b1001 c
1"
1%
#40
0"
0%
#42
b10000000000 d
b10000000000 0
b1010 b
b1010 +
b1010 c
0I
0g
bx k
bx -
1"
1%
#44
0"
0%
#46
b100000000000 d
b100000000000 0
b1011 b
b1011 +
b1011 c
1"
1%
#48
0"
0%
#50
b1000000000000 d
b1000000000000 0
b1100 b
b1100 +
b1100 c
1"
1%
#52
0"
0%
#54
b10000000000000 d
b10000000000000 0
12
1L
b1101 b
b1101 +
b1101 c
1"
1%
#56
0"
0%
#58
b100000000000000 d
b100000000000000 0
b0 P
b0 !
b0 .
b1110 b
b1110 +
b1110 c
02
0L
1"
1%
#60
0"
0%
#62
b1000000000000000 d
b1000000000000000 0
1E
1a
b1111 b
b1111 +
b1111 c
1"
1%
#64
0"
0%
#66
b1 d
b1 0
b0 b
b0 +
b0 c
0E
0a
1"
1%
#68
0"
0%
#70
b10 d
b10 0
18
1_
b1 6
b1 ]
b1 b
b1 +
b1 c
1"
1%
#72
0"
0%
#74
b100 d
b100 0
b1 `
b1 $
b10 b
b10 +
b10 c
1B
1Z
08
0_
1"
1%
#76
0"
0%
#78
b1000 d
b1000 0
b1 G
b1 i
1I
1g
0B
0Z
b11 b
b11 +
b11 c
b10 \
b10 )
1"
1%
#80
0"
0%
#82
b10000 d
b10000 0
b100 b
b100 +
b100 c
0I
0g
b1000000000110 k
b1000000000110 -
1"
1%
#84
0"
0%
#86
b100000 d
b100000 0
1@
1S
b1000000000110 ?
b1000000000110 Q
b101 b
b101 +
b101 c
1"
1%
#88
0"
0%
#90
b1000000 d
b1000000 0
b1000000000110 T
b1000000000110 (
b110 b
b110 +
b110 c
0@
0S
1"
1%
#92
0"
0%
#94
b10 f
b10 ,
b10000000 d
b10000000 0
18
1_
b110 6
b110 ]
b1 F
b1 e
b111 b
b111 +
b111 c
1"
1%
#96
0"
0%
#98
b100000000 d
b100000000 0
b110 `
b110 $
b1000 b
b1000 +
b1000 c
08
0_
1"
1%
#100
0"
0%
#102
b1000000000 d
b1000000000 0
b110 G
b110 i
1I
1g
b1001 b
b1001 +
b1001 c
1"
1%
#104
0"
0%
#106
b10000000000 d
b10000000000 0
b1010 b
b1010 +
b1010 c
0I
0g
b1100000110100101 k
b1100000110100101 -
1"
1%
#108
0"
0%
#110
b100000000000 d
b100000000000 0
b1011 b
b1011 +
b1011 c
1"
1%
#112
0"
0%
#114
b1000000000000 d
b1000000000000 0
b1100 b
b1100 +
b1100 c
1"
1%
#116
0"
0%
#118
b10000000000000 d
b10000000000000 0
1I
1g
b1101 b
b1101 +
b1101 c
1"
1%
#120
0"
0%
#122
b100000000000000 d
b100000000000000 0
b1110 b
b1110 +
b1110 c
0I
0g
1"
1%
#124
0"
0%
#126
b1000000000000000 d
b1000000000000000 0
1<
1W
b1100000110100101 :
b1100000110100101 U
b1111 b
b1111 +
b1111 c
1"
1%
#128
0"
0%
#130
b10000000000000000 d
b10000000000000000 0
b1100000110100101 X
b1100000110100101 &
b10000 b
b10000 +
b10000 c
0<
0W
1"
1%
#132
0"
0%
#134
b1100000110100101 p
b1100000110100101 *
0o
0'
b100000000000000000 d
b100000000000000000 0
1J
1n
b0 9
b0 m
b1100000110100101 1
b1100000110100101 l
b10001 b
b10001 +
b10001 c
1"
1%
#136
0"
0%
#138
b1000000000000000000 d
b1000000000000000000 0
b10010 b
b10010 +
b10010 c
1"
1%
#140
0"
0%
#142
b10000000000000000000 d
b10000000000000000000 0
15
1O
0=
b1100000110100101 3
b1100000110100101 M
b10011 b
b10011 +
b10011 c
1"
1%
#144
0"
0%
#146
b100000000000000000000 d
b100000000000000000000 0
b1100000110100101 P
b1100000110100101 !
b1100000110100101 .
b10100 b
b10100 +
b10100 c
05
0O
1"
1%
#148
0"
0%
#150
b1000000000000000000000 d
b1000000000000000000000 0
1E
1a
b10101 b
b10101 +
b10101 c
1"
1%
#152
0"
0%
#154
b1 d
b1 0
b0 b
b0 +
b0 c
0E
0a
1"
1%
#156
0"
0%
#158
b10 d
b10 0
18
1_
b10 6
b10 ]
b1 b
b1 +
b1 c
1"
1%
#160
0"
0%
#162
b100 d
b100 0
b10 `
b10 $
b10 b
b10 +
b10 c
1B
1Z
08
0_
1"
1%
#164
0"
0%
#166
b1000 d
b1000 0
b10 G
b10 i
1I
1g
0B
0Z
b11 b
b11 +
b11 c
b11 \
b11 )
1"
1%
#168
0"
0%
#170
b10000 d
b10000 0
b100 b
b100 +
b100 c
0I
0g
b100000000000100 k
b100000000000100 -
1"
1%
#172
0"
0%
#174
b100000 d
b100000 0
1@
1S
b100000000000100 ?
b100000000000100 Q
b101 b
b101 +
b101 c
1"
1%
#176
0"
0%
#178
b1000000 d
b1000000 0
b100000000000100 T
b100000000000100 (
b110 b
b110 +
b110 c
0@
0S
1"
1%
#180
0"
0%
#182
b10000 f
b10000 ,
b10000000 d
b10000000 0
18
1_
b100 6
b100 ]
b100 F
b100 e
b111 b
b111 +
b111 c
1"
1%
#184
0"
0%
#186
b100000000 d
b100000000 0
b100 `
b100 $
b1000 b
b1000 +
b1000 c
08
0_
1"
1%
#188
0"
0%
#190
b1000000000 d
b1000000000 0
b100 G
b100 i
1I
1g
b1001 b
b1001 +
b1001 c
1"
1%
#192
0"
0%
#194
b10000000000 d
b10000000000 0
b1010 b
b1010 +
b1010 c
0I
0g
b111 k
b111 -
1"
1%
#196
0"
0%
#198
b100000000000 d
b100000000000 0
b1011 b
b1011 +
b1011 c
1"
1%
#200
0"
0%
#202
b1000000000000 d
b1000000000000 0
b1100 b
b1100 +
b1100 c
1"
1%
#204
0"
0%
#206
b10000000000000 d
b10000000000000 0
1C
1[
b100 A
b100 Y
b1101 b
b1101 +
b1101 c
1"
1%
#208
0"
0%
#210
b100000000000000 d
b100000000000000 0
b100 \
b100 )
b1110 b
b1110 +
b1110 c
0C
0[
1"
1%
#212
0"
0%
#214
b1000000000000000 d
b1000000000000000 0
1E
1a
b1111 b
b1111 +
b1111 c
1"
1%
#216
0"
0%
#218
b1 d
b1 0
b0 b
b0 +
b0 c
0E
0a
1"
1%
#220
0"
0%
#222
b10 d
b10 0
18
1_
b1 b
b1 +
b1 c
1"
1%
#224
0"
0%
#226
b100 d
b100 0
b10 b
b10 +
b10 c
1B
1Z
08
0_
1"
1%
#228
0"
0%
#230
b1000 d
b1000 0
1I
1g
0B
0Z
b11 b
b11 +
b11 c
b101 \
b101 )
1"
1%
#232
0"
0%
#234
b10000 d
b10000 0
b100 b
b100 +
b100 c
0I
0g
1"
1%
#236
0"
0%
#238
b100000 d
b100000 0
1@
1S
b111 ?
b111 Q
b101 b
b101 +
b101 c
1"
1%
#240
0"
0%
#242
b1000000 d
b1000000 0
b111 T
b111 (
b110 b
b110 +
b110 c
0@
0S
1"
1%
#244
0"
0%
#246
b1 f
b1 ,
b10000000 d
b10000000 0
18
1_
b111 6
b111 ]
b0 F
b0 e
b111 b
b111 +
b111 c
1"
1%
#248
0"
0%
#250
b100000000 d
b100000000 0
b111 `
b111 $
b1000 b
b1000 +
b1000 c
08
0_
1"
1%
#252
0"
0%
#254
b1000000000 d
b1000000000 0
b111 G
b111 i
1I
1g
b1001 b
b1001 +
b1001 c
1"
1%
#256
0"
0%
#258
b10000000000 d
b10000000000 0
b1010 b
b1010 +
b1010 c
0I
0g
b1001001111000110 k
b1001001111000110 -
1"
1%
#260
0"
0%
#262
b100000000000 d
b100000000000 0
b1011 b
b1011 +
b1011 c
1"
1%
#264
0"
0%
#266
b1000000000000 d
b1000000000000 0
b1100 b
b1100 +
b1100 c
1"
1%
#268
0"
0%
#270
b10000000000000 d
b10000000000000 0
1I
1g
b1101 b
b1101 +
b1101 c
1"
1%
#272
0"
0%
#274
b100000000000000 d
b100000000000000 0
b1110 b
b1110 +
b1110 c
0I
0g
1"
1%
#276
0"
0%
#278
b1000000000000000 d
b1000000000000000 0
1<
1W
b1001001111000110 :
b1001001111000110 U
b1111 b
b1111 +
b1111 c
1"
1%
#280
0"
0%
#282
b10000000000000000 d
b10000000000000000 0
b1001001111000110 X
b1001001111000110 &
b10000 b
b10000 +
b10000 c
0<
0W
1"
1%
#284
0"
0%
#286
b1000000110000100 p
b1000000110000100 *
b100000000000000000 d
b100000000000000000 0
0J
0n
b1100000110100101 9
b1100000110100101 m
b1001001111000110 1
b1001001111000110 l
b10001 b
b10001 +
b10001 c
1"
1%
#288
0"
0%
#290
b1000000000000000000 d
b1000000000000000000 0
b10010 b
b10010 +
b10010 c
1"
1%
#292
0"
0%
#294
b10000000000000000000 d
b10000000000000000000 0
15
1O
b1000000110000100 3
b1000000110000100 M
b10011 b
b10011 +
b10011 c
1"
1%
#296
0"
0%
#298
b100000000000000000000 d
b100000000000000000000 0
b1000000110000100 P
b1000000110000100 !
b1000000110000100 .
b10100 b
b10100 +
b10100 c
05
0O
1"
1%
#300
0"
0%
#302
b1000000000000000000000 d
b1000000000000000000000 0
1E
1a
b10101 b
b10101 +
b10101 c
1"
1%
#304
0"
0%
#306
b1 d
b1 0
b0 b
b0 +
b0 c
0E
0a
1"
1%
#308
0"
0%
#310
b10 d
b10 0
18
1_
b101 6
b101 ]
b1 b
b1 +
b1 c
1"
1%
#312
0"
0%
#314
b100 d
b100 0
b101 `
b101 $
b10 b
b10 +
b10 c
1B
1Z
08
0_
1"
1%
#316
0"
0%
#318
b1000 d
b1000 0
b101 G
b101 i
1I
1g
0B
0Z
b11 b
b11 +
b11 c
b110 \
b110 )
1"
1%
#320
0"
0%
#322
b10000 d
b10000 0
b100 b
b100 +
b100 c
0I
0g
b100000000000011 k
b100000000000011 -
1"
1%
#324
0"
0%
#326
b100000 d
b100000 0
1@
1S
b100000000000011 ?
b100000000000011 Q
b101 b
b101 +
b101 c
1"
1%
#328
0"
0%
#330
b1000000 d
b1000000 0
b100000000000011 T
b100000000000011 (
b110 b
b110 +
b110 c
0@
0S
1"
1%
#332
0"
0%
#334
b10000 f
b10000 ,
b10000000 d
b10000000 0
18
1_
b11 6
b11 ]
b100 F
b100 e
b111 b
b111 +
b111 c
1"
1%
#336
0"
0%
#338
b100000000 d
b100000000 0
b11 `
b11 $
b1000 b
b1000 +
b1000 c
08
0_
1"
1%
#340
0"
0%
#342
b1000000000 d
b1000000000 0
b11 G
b11 i
1I
1g
b1001 b
b1001 +
b1001 c
1"
1%
#344
0"
0%
#346
b10000000000 d
b10000000000 0
b1010 b
b1010 +
b1010 c
0I
0g
b111000000000001 k
b111000000000001 -
1"
1%
#348
0"
0%
#350
b100000000000 d
b100000000000 0
b1011 b
b1011 +
b1011 c
1"
1%
#352
0"
0%
#354
b1000000000000 d
b1000000000000 0
b1100 b
b1100 +
b1100 c
1"
1%
#356
0"
0%
#358
b10000000000000 d
b10000000000000 0
1C
1[
b11 A
b11 Y
b1101 b
b1101 +
b1101 c
1"
1%
#360
0"
0%
#362
b100000000000000 d
b100000000000000 0
b11 \
b11 )
b1110 b
b1110 +
b1110 c
0C
0[
1"
1%
#364
0"
0%
#366
b1000000000000000 d
b1000000000000000 0
1E
1a
b1111 b
b1111 +
b1111 c
1"
1%
#368
0"
0%
#370
b1 d
b1 0
b0 b
b0 +
b0 c
0E
0a
1"
1%
#372
0"
0%
#374
b10 d
b10 0
18
1_
b1 b
b1 +
b1 c
1"
1%
#376
0"
0%
#378
b100 d
b100 0
b10 b
b10 +
b10 c
1B
1Z
08
0_
1"
1%
#380
0"
0%
#382
b1000 d
b1000 0
1I
1g
0B
0Z
b11 b
b11 +
b11 c
b100 \
b100 )
1"
1%
#384
0"
0%
#386
b10000 d
b10000 0
b100 b
b100 +
b100 c
0I
0g
1"
1%
#388
0"
0%
#390
b100000 d
b100000 0
1@
1S
b111000000000001 ?
b111000000000001 Q
b101 b
b101 +
b101 c
1"
1%
#392
0"
0%
#394
b1000000 d
b1000000 0
b111000000000001 T
b111000000000001 (
b110 b
b110 +
b110 c
0@
0S
1"
1%
#396
0"
0%
#398
b10000000 f
b10000000 ,
b10000000 d
b10000000 0
18
1_
b1 6
b1 ]
b111 F
b111 e
b111 b
b111 +
b111 c
1"
1%
#400
0"
0%
#402
b100000000 d
b100000000 0
b1 `
b1 $
b1000 b
b1000 +
b1000 c
08
0_
1"
1%
#404
0"
0%
#406
b1000000000 d
b1000000000 0
b1 G
b1 i
1I
1g
b1001 b
b1001 +
b1001 c
1"
1%
#408
0"
0%
#410
b10000000000 d
b10000000000 0
b1010 b
b1010 +
b1010 c
0I
0g
b1000000000110 k
b1000000000110 -
1"
1%
#412
0"
0%
#414
b100000000000 d
b100000000000 0
b1011 b
b1011 +
b1011 c
1"
1%
#416
0"
0%
#418
b1000000000000 d
b1000000000000 0
b1100 b
b1100 +
b1100 c
1"
1%
#420
0"
0%
#422
b10000000000000 d
b10000000000000 0
b1101 b
b1101 +
b1101 c
0D
1"
1%
#424
0"
0%
#426
b100000000000000 d
b100000000000000 0
b1110 b
b1110 +
b1110 c
1"
1%
#428
0"
0%
#430
b1000000000000000 d
b1000000000000000 0
b1111 b
b1111 +
b1111 c
1"
1%
#432
0"
0%
#434
b10000000000000000 d
b10000000000000000 0
b10000 b
b10000 +
b10000 c
1"
1%
#436
0"
0%
#438
b100000000000000000 d
b100000000000000000 0
b10001 b
b10001 +
b10001 c
1"
1%
#440
0"
0%
#442
b1000000000000000000 d
b1000000000000000000 0
b10010 b
b10010 +
b10010 c
1"
1%
#444
0"
0%
#446
b10000000000000000000 d
b10000000000000000000 0
b10011 b
b10011 +
b10011 c
1"
1%
#448
0"
0%
#450
b100000000000000000000 d
b100000000000000000000 0
b10100 b
b10100 +
b10100 c
1"
1%
#452
0"
0%
#454
b1000000000000000000000 d
b1000000000000000000000 0
b10101 b
b10101 +
b10101 c
1"
1%
#456
0"
0%
#458
b10000000000000000000000 d
b10000000000000000000000 0
b10110 b
b10110 +
b10110 c
1"
1%
#460
0"
0%
#462
b100000000000000000000000 d
b100000000000000000000000 0
b10111 b
b10111 +
b10111 c
1"
1%
#464
0"
0%
#466
b1000000000000000000000000 d
b1000000000000000000000000 0
b11000 b
b11000 +
b11000 c
1"
1%
#468
0"
0%
#470
b10000000000000000000000000 d
b10000000000000000000000000 0
b11001 b
b11001 +
b11001 c
1"
1%
#472
0"
0%
#474
b100000000000000000000000000 d
b100000000000000000000000000 0
b11010 b
b11010 +
b11010 c
1"
1%
#476
0"
0%
#478
b1000000000000000000000000000 d
b1000000000000000000000000000 0
b11011 b
b11011 +
b11011 c
1"
1%
#480
0"
0%
#482
b10000000000000000000000000000 d
b10000000000000000000000000000 0
b11100 b
b11100 +
b11100 c
1"
1%
#484
0"
0%
#486
b100000000000000000000000000000 d
b100000000000000000000000000000 0
b11101 b
b11101 +
b11101 c
1"
1%
#488
0"
0%
#490
b1000000000000000000000000000000 d
b1000000000000000000000000000000 0
b11110 b
b11110 +
b11110 c
1"
1%
#492
0"
0%
#494
b10000000000000000000000000000000 d
b10000000000000000000000000000000 0
b11111 b
b11111 +
b11111 c
1"
1%
#496
0"
0%
#498
b1 d
b1 0
b0 b
b0 +
b0 c
1"
1%
